{
  "patient": [
    {
      "id": "1",
      "nom": "abdelleh",
      "prenom": "ouladali",
      "cin": "SH324",
      "sex": "homme",
      "list": []
    },
    {
      "id": "06c3",
      "nom": "ouladali",
      "prenom": "",
      "cin": "",
      "sex": "femme"
    },
    {
      "id": "2329",
      "nom": "abidar",
      "prenom": "najla",
      "cin": "sh1232",
      "sex": "femme"
    },
    {
      "id": "9dbf",
      "nom": "ouladali",
      "prenom": "abdeleh",
      "cin": "sh786",
      "sex": "homme"
    },
    {
      "id": "a6ac",
      "nom": "ouladali",
      "prenom": "abdeleh",
      "cin": "sh1010",
      "sex": "homme"
    },
    {
      "id": "577f",
      "nom": "hassan",
      "prenom": "reguig",
      "cin": "sh1111",
      "sex": "homme"
    },
    {
      "id": "fde8",
      "nom": "hassan",
      "prenom": "reguig",
      "cin": "sh4749",
      "sex": "homme",
      "date": "2024-02-25T06:15"
    },
    {
      "id": "e40c",
      "nom": "hassan",
      "prenom": "reguig",
      "cin": "sh4747",
      "sex": "homme",
      "date": "2024-02-25T07:11"
    },
    {
      "id": "46f4",
      "nom": "hassan",
      "prenom": "reguig",
      "cin": "sh1010",
      "sex": "homme",
      "date": "2024-02-25T08:27"
    },
    {
      "id": "a4bb",
      "nom": "hassan",
      "prenom": "reguig",
      "cin": "sh1010",
      "sex": "homme",
      "date": "2024-02-25T08:31"
    },
    {
      "id": "5135",
      "nom": "hassan",
      "prenom": "reguig",
      "cin": "sh1111",
      "sex": "homme",
      "date": "2024-02-25T08:36"
    }
  ],
  "ordonnances": [
    {
      "id": "cd51",
      "medicament": [
        "doliprane",
        "asperine"
      ]
    },
    {
      "id": "a6ac",
      "medicament": [
        "doliprane",
        "asperine"
      ]
    },
    {
      "id": "577f",
      "medicament": [
        "aspigic",
        "vitamine c"
      ]
    },
    {
      "id": "e9de",
      "medicament": [
        "doliprane",
        "dolly break"
      ]
    },
    {
      "id": "577f",
      "medicament": [
        "doliprane",
        "aspégic"
      ]
    }
  ]
}